Data Cleaning: Formatting Data
…
Combine Race into Fewer Categories

Because some categories were were below n = 10, I recoded responses containing “and” as “Two or More Races” to facilitate analysis and to protect participants’ identity when sharing dataset. Reporting original count in the Methods section might still be useful.

Code

#Count with raw responses
count(data, race) 

# A tibble: 21 × 2
   race                                                                        n
   <chr>                                                                   <int>
 1 American Indian or Alaska Native                                            8
 2 American Indian or Alaska Native and Asian and Black or African Americ…     1
 3 American Indian or Alaska Native and White                                 10
 4 American Indian or Alaska Native and White and Some Other Race              1
 5 Asian                                                                      26
 6 Asian and Black or African American                                         1
 7 Asian and Some Other Race                                                   1
 8 Asian and White                                                             8
 9 Asian and White and Some Other Race                                         1
10 Black or African American                                                  66
# ℹ 11 more rows
…
don’t

can’t

To standardize the responses on that variable, I changed elements containing strings in which those terms are present into “None”.

Code

data$instrument <- data$instrument %>% 
  tolower()

data %>% 
  distinct(instrument)

# A tibble: 159 × 1
   instrument      
   <chr>           
 1 none            
 2 electric guitar 
 3 nothing         
 4 piano           
 5 voice           
 6 piano and  harp 
 7 piano and  voice
 8 harp            
 9 i don't play one
10 violin          
# ℹ 149 more rows

Code

data <- data %>% 
  mutate(instrument = ifelse(str_detect(instrument, "don't|dont|never|not|can't|nothing"), "None", instrument))

data %>% 
  filter(str_detect(instrument, "voice"))

# A tibble: 178 × 65
   survey_id grade   age school race   hispanic_latino gender currentSchoolMusic
       <dbl> <dbl> <dbl> <chr>  <chr>  <chr>           <chr>  <chr>             
 1         5     6    NA A      White  No              Female Other             
 2         6     6    12 A      White  No              Female Other             
 3         9     6    11 A      Some … No              Male   Choir             
 4        10     6    12 A      White  No              Female Choir             
 5        11     6    NA A      White  No              Male   Choir             
 6        12     6    12 A      White  No              Female Choir             
 7        13     6    12 A      Black… No              Male   Choir             
 8        14     6    12 A      White  No              Female Choir             
 9        15     6    12 A      Some … No              Male   Choir             
10        16     7    13 A      White  No              Male   Choir             
# ℹ 168 more rows
# ℹ 57 more variables: currentSchoolMusic_other <chr>, s1_1 <dbl>, s1_2 <dbl>,
#   s1_3 <dbl>, s1_4 <dbl>, s1_5 <dbl>, s1_6 <dbl>, s1_7 <dbl>, s1_8 <dbl>,
#   s1_9 <dbl>, s1_10 <dbl>, s1_11 <dbl>, s1_12 <dbl>, s1_13 <dbl>, s2_1 <dbl>,
#   s2_2 <dbl>, s2_3 <dbl>, s2_4 <dbl>, s2_5 <dbl>, s2_6 <dbl>,
#   instrument <chr>, familyMusic <dbl>, schoolChoir <dbl>,
#   schoolInstrumental <dbl>, schoolExtracurricular <dbl>, …
…
